INDEX VERSION 1.131+/Users/senzo.tshezi/Documents/spring-boot-microservices-and-spring-cloud/.metadata/.plugins/org.eclipse.jdt.core
435892071.index
137818756.index
2901511741.index
1297528164.index
2784703173.index
1122887407.index
4103178423.index
2890270976.index
1370443894.index
486635594.index
202412122.index
2223995861.index
940626118.index
1330474370.index
3382611759.index
3864396922.index
2671604931.index
898472597.index
4035077193.index
1073487031.index
4160443641.index
3121274494.index
918050212.index
4074798472.index
1613172590.index
3518903596.index
4239671017.index
3530330621.index
3646481540.index
2852308180.index
2421526387.index
2349912555.index
4229135153.index
3686918759.index
388490211.index
2226994852.index
863215438.index
2156233974.index
345987383.index
1548667563.index
3348870492.index
2950869902.index
2449274809.index
3344480805.index
1141417991.index
1810164957.index
1429727975.index
2577128445.index
3443498563.index
738939245.index
4202130643.index
586217080.index
1870126744.index
2510140950.index
4072349362.index
949283710.index
4165757836.index
109147281.index
457127196.index
